{
    "fontname" : "julietaula-montserrat",
    "lang" : ["en","es","it","qu"],
    "font_family_list" : ["Montserrat Light","Montserrat Thin","Montserrat SemiBold","Montserrat ExtraLight","Montserrat Medium","Montserrat ExtraBold","Montserrat Light","Montserrat Black"],
    "font_conf_list" : ["61-julietaula-montserrat.conf"]
}